20

3
Kiryu Kazuma
Date
The Florist
1 2 3
1 3 2
2 1 3
2 3 1
3 1 2
1 2 3

2
Kiryu Kazuma
Goro Majima
1 2
2 1
1 2
2 1

3
Chocolate
Vanilla
Strawberry
3 2 1
2 3 1
3 1 2
3 1 2
3 2 1
2 1 3
3 2 1

20
a
b
c
d
e
f
g
h
i
j
k
l
m
n
o
p
q
r
s
t
1 2 3 4 5 6 7 8 9 10 11 12 13 14 15 16 17 18 19 20

5
cs312
cs314
cs429
cs439
cs331
5 3 1 4 2
4 2 3 1 5
3 4 2 1 5
5 4 1 3 2
2 3 1 4 5
1 4 5 3 2
1 4 2 5 3
2 3 4 5 1

4
John Lennon
Paul McCartney
George Harrison
Ringo Starr
4 3 2 1
2 3 4 1
2 3 1 4
4 2 3 1
1 3 2 4
1 2 3 4
1 2 4 3
4 2 3 1
1 3 2 4

7
Metal Gear Solid
Sons of Liberty
Snake Eater
Buns of the Patriots
Peace Walker
Ground Zero
The Phantom Pain
7 6 4 5 2 3 1
2 3 1 5 7 4 6
2 4 6 3 5 1 7
7 6 2 3 5 4 1
6 5 3 4 7 1 2
1 3 2 5 4 7 6
3 4 5 1 2 6 7
4 7 6 5 1 3 2
5 4 3 2 1 7 6
5 3 2 4 1 6 7
1 2 3 4 5 6 7
3 1 2 6 4 5 7
7 5 6 1 2 3 4
2 3 1 5 7 4 6
3 2 5 1 7 4 6
4 2 1 3 5 6 7
3 5 6 7 1 2 4
6 7 2 3 5 1 4

2
Kamurucho
Sotenbouri
1 2
2 1
2 1
2 1
1 2
2 1
1 2
2 1

3
Lightning McQueen
The King
Chick Hicks
1 2 3
1 3 2
2 1 3
3 1 2
3 2 1
1 2 3
1 2 3
2 1 3
1 2 3
3 2 1
1 2 3
2 1 3

4
Freddy
Bonnie
Chica
Foxy
1 2 3 4
4 3 2 1
4 2 3 1
1 3 2 4
2 3 4 1
3 1 4 2
1 3 2 4
4 2 3 1
2 1 4 3

4
Yuma
Stardust
Asterian
Kevin
2 4 3 1
2 3 4 1
2 1 3 4
4 3 1 2
3 1 2 4
1 4 3 2
1 4 2 3
3 2 4 1
2 4 3 1

4
Fall
Winter
Spring
Summer
2 3 4 1
2 4 3 1
4 3 2 1
2 1 4 3
2 4 3 1
1 3 2 4
4 3 1 2
3 1 2 4
1 4 3 2

3
Red
Blue
Yellow
3 2 1
3 2 1
2 1 3
2 3 1
3 1 2
3 1 2

5
one
two
three
four
five
5 4 3 2 1
4 2 5 3 1
5 3 1 2 4
1 2 4 3 5
4 3 2 1 5
1 5 2 4 3
3 4 1 2 5
5 1 2 3 4
5 2 1 3 4
3 4 1 2 5

3
Mark
Bob
Wade
2 1 3
2 3 1
1 2 3
1 3 2
3 1 2
3 2 1
1 3 2
1 2 3
1 2 3
1 3 2

10
Alex
Brenda
Cam
Darnell
Eduardo
Ferdinand
Gary
Henry
Iline
Jerry
1 2 3 4 5 6 7 8 9 10
2 4 6 8 10 9 5 7 3 1
1 3 2 4 5 7 6 8 10 9

2
Java
Python
1 2
1 2
2 1
1 2

6
Led
Zepplin
The
Beatles
Rolling
Stones
6 4 2 3 5 1
6 2 4 3 5 1
5 3 2 4 6 1
3 2 4 5 6 1
4 2 3 5 6 1
1 4 5 6 2 3
4 5 1 2 3 6
2 6 5 3 4 1
2 1 6 5 3 4

3
The Winner
Middle Man
The Loser
3 2 1
1 3 2
2 3 1
2 1 3
2 1 3
1 3 2
2 1 3
2 1 3
2 1 3

5
Name uno
Name dos
Name tres
Name cuatro
Name cinco
5 4 3 2 1
5 3 1 2 4
4 2 3 5 1
1 3 2 4 5
1 2 4 3 5
5 2 1 3 4
2 3 4 5 1
2 3 1 4 5
5 4 1 3 2
